{
  "name": "circus",
  "description": "Installs oniondigital dependencies.",
  "long_description": "intall oniondigital dependencies\n",
  "maintainer": "Ferran Pegueroles",
  "maintainer_email": "ferran@pegueroles.com",
  "license": "Apache 2.0",
  "platforms": {
  },
  "dependencies": {
  },
  "recommendations": {
  },
  "suggestions": {
  },
  "conflicting": {
  },
  "providing": {
  },
  "replacing": {
  },
  "attributes": {
  },
  "groupings": {
  },
  "recipes": {
  },
  "version": "1.0.0"
}
